OYSTER Identity Change Report
Date          : Aug 08, 2017
RunScript Path: truth\truth.run.xml
RunScript Name: Truth.Run

Identity Change Summary Section
Count of Output Identities:	45
Count of Input Identities:	0
Count of Input Identities Updated and Written to Output:	0
Count of Input Identities Not Updated and Written to Output:	0
Count of Input Identities Merged:	0
Count of New Identities Created:	45
Count of Error Identities:	0


Identity Change Detail Section
New Identities Created
Identifier	References
3I3MX79VX5NPWH9N	ListC.C000808|ListC.C003262|ListC.C005914|ListC.C006807|ListC.C019888|ListC.C026161|ListC.C031277|ListC.C034950|ListC.C059789|ListC.C060885|ListA.A005131|ListA.A006356|ListA.A066135|ListA.A073137|ListA.A080213|ListA.A025768|ListA.A027931|ListA.A030870|ListA.A032193|ListA.A038825|ListA.A044673|ListA.A045342|ListB.B007400|ListB.B062849|ListB.B072679|ListB.B072798|ListB.B078066|ListB.B030886|ListB.B031993|ListB.B099524|ListB.B035084|ListB.B039067|ListB.B042778
KA6V4FHPPXKAYN5M	ListC.C001276|ListC.C006577|ListC.C016418|ListC.C016744|ListC.C037708|ListC.C039838|ListC.C041795|ListC.C049366|ListC.C054238|ListC.C056341|ListC.C056951|ListC.C068643|ListC.C070245|ListC.C074850|ListA.A001710|ListA.A060834|ListA.A006520|ListA.A064307|ListA.A071198|ListA.A073223|ListA.A075328|ListA.A080296|ListA.A082343|ListA.A025044|ListA.A029001|ListA.A031586|ListA.A094264|ListA.A042989|ListA.A048093|ListB.B051001|ListB.B052064|ListB.B053277|ListB.B053910|ListB.B005201|ListB.B057958|ListB.B008327|ListB.B010253|ListB.B011301|ListB.B013709|ListB.B017174|ListB.B077830|ListB.B027118|ListB.B035722|ListB.B045242|ListB.B045672
9BYDF0V8CNIT7V97	ListC.C002450|ListC.C007613|ListC.C010404|ListC.C021424|ListC.C030441|ListC.C071752|ListA.A063086|ListA.A009828|ListA.A065023|ListA.A013128|ListA.A015580|ListA.A025485|ListB.B000891|ListB.B006626|ListB.B067759|ListB.B068224|ListB.B087620|ListB.B037746
FHL5706R38VPVNJI	ListC.C002608|ListC.C007262|ListC.C015408|ListC.C025952|ListC.C042245|ListC.C045679|ListC.C046465|ListC.C041578|ListC.C053116|ListC.C057275|ListC.C064033|ListA.A054803|ListA.A056996|ListA.A059242|ListA.A065532|ListA.A012733|ListA.A079620|ListA.A091265|ListA.A093871|ListA.A047447|ListA.A052559|ListA.A052818|ListA.A053219|ListB.B000323|ListB.B054117|ListB.B012129|ListB.B097018|ListB.B038818|ListB.B043002|ListB.B044097|ListB.B047390|ListB.B049357
85YGGY8EAU1X4LCO	ListC.C003189|ListC.C041726|ListC.C049020|ListC.C073298|ListA.A067315|ListA.A077103|ListB.B022805|ListB.B079580
2O3KUX8TH7MFFV25	ListC.C003783|ListC.C024727|ListC.C027667|ListC.C048631|ListA.A064653|ListA.A011092|ListA.A066689|ListA.A068696|ListA.A084036|ListA.A085728|ListB.B006924|ListB.B008423|ListB.B066452|ListB.B091796|ListB.B093568|ListB.B032790
IM2YOFQAZA8MMY7S	ListC.C007861|ListC.C024808|ListC.C011686|ListC.C023728|ListC.C029015|ListC.C040060|ListC.C051781|ListC.C040073|ListC.C071647|ListA.A004719|ListA.A005714|ListA.A060067|ListA.A063817|ListA.A065600|ListA.A022731|ListA.A082535|ListA.A083216|ListA.A086031|ListA.A086625|ListA.A029626|ListA.A030075|ListA.A048998|ListB.B055930|ListB.B006652|ListB.B016853|ListB.B019047|ListB.B072972|ListB.B020437|ListB.B086454|ListB.B094767|ListB.B099224|ListB.B100709|ListB.B034478
VMFE669QJJ64HXCB	ListC.C007939|ListC.C008372|ListC.C024858|ListC.C039721|ListC.C067236|ListA.A059166|ListA.A008225|ListA.A032321|ListA.A034497|ListA.A039982|ListA.A042419|ListA.A050980|ListB.B000482|ListB.B006636|ListB.B059238|ListB.B065719|ListB.B015273|ListA.A050688|ListB.B078536|ListA.A083343|ListB.B019706|ListB.B099063|ListB.B039120
2YU6C9X4M7G6DX3I	ListC.C008657|ListA.A068655|ListA.A079928|ListA.A037003|ListA.A048731|ListB.B011873|ListB.B066862|ListB.B017960|ListB.B071265
U0N0S3TX2C9RX8LR	ListC.C009322|ListB.B097488
80Z20KZNTLVDR8HG	ListC.C009743|ListC.C017900|ListC.C042926|ListC.C051534|ListC.C061068|ListC.C061757|ListA.A062960|ListA.A040556|ListA.A043770|ListA.A044107|ListA.A045780|ListA.A046690|ListB.B056333|ListB.B060373|ListB.B011174|ListB.B011467|ListB.B028082|ListB.B090126|ListB.B040607
NP75BID48BDNU2IV	ListC.C010592|ListC.C020605|ListA.A060237|ListA.A070395|ListA.A086554|ListC.C023704|ListC.C013097|ListC.C044927|ListC.C057292|ListC.C062249|ListC.C074872|ListA.A055105|ListA.A057440|ListA.A083189|ListA.A033921|ListA.A034888|ListA.A044301|ListA.A047345|ListA.A049967|ListB.B054528|ListB.B010648|ListB.B018258|ListB.B071624|ListB.B019002|ListB.B020132|ListB.B024185|ListB.B028257|ListB.B031019|ListB.B040679|ListB.B042931|ListB.B044946
3UKJAA1V4N5DQRU0	ListC.C011123|ListC.C017573|ListC.C023917|ListC.C027339|ListC.C030798|ListC.C044911|ListC.C044965|ListC.C060004|ListC.C069929|ListA.A064548|ListA.A064950|ListA.A013592|ListA.A014635|ListA.A070600|ListA.A073270|ListA.A017166|ListA.A079379|ListA.A080297|ListA.A027714|ListA.A029747|ListB.B015231|ListB.B067246|ListB.B016487|ListB.B068681|ListB.B018494|ListB.B026197|ListB.B029716|ListB.B093022|ListB.B093768|ListB.B096238|ListB.B032640|ListB.B041151
BPW22JOQ7FTAIT5N	ListC.C011707
H788W9WSTK8PERV7	ListC.C013877|ListC.C015389|ListC.C054595|ListC.C065559|ListA.A002410|ListA.A011917|ListA.A068424|ListA.A079051|ListA.A047436|ListB.B035021
90L0AUOL0O2IGI17	ListC.C015315|ListC.C015938|ListC.C025781|ListC.C028983|ListC.C030784|ListC.C033954|ListC.C053384|ListA.A005405|ListA.A079550|ListA.A024862|ListA.A033816|ListA.A040408|ListA.A056133|ListA.A067523|ListA.A053569|ListB.B005233|ListB.B014381|ListB.B015357|ListB.B017085|ListB.B021206|ListB.B080916|ListB.B025535|ListB.B086903|ListB.B091641|ListB.B093690|ListB.B042237|ListB.B050302|ListB.B050414
314IGC1DAJXT3W0C	ListC.C016132|ListC.C043499|ListC.C048212|ListC.C054446|ListA.A004188|ListA.A065329|ListA.A015179|ListA.A075710|ListA.A079706|ListA.A079731|ListA.A080862|ListA.A083088|ListC.C004716|ListC.C027013|ListC.C043828|ListC.C075154|ListA.A082177|ListA.A085200|ListA.A031113|ListA.A041484|ListA.A043314|ListA.A044503|ListA.A047545|ListA.A049817|ListA.A088352|ListA.A053722|ListB.B000321|ListB.B000817|ListB.B003554|ListB.B058503|ListB.B059891|ListB.B068283|ListB.B070436|ListB.B019052|ListB.B077244|ListB.B081317|ListB.B082494|ListB.B083949|ListB.B084451|ListB.B038839|ListB.B049752
J4K8AZ79GXI7657R	ListC.C016527|ListC.C037050|ListC.C047395|ListA.A011455|ListA.A083911|ListA.A092472|ListA.A038179|ListA.A040806|ListB.B007842|ListB.B066050|ListB.B033463|ListB.B041189|ListB.B042042
G3H6SUZ69KG7XIFK	ListC.C017488|ListA.A090662|ListA.A032241|ListA.A035147|ListB.B057175|ListB.B081299
K7Y4HPORQV2NC8Q8	ListC.C017726|ListC.C019953|ListC.C049479|ListC.C055072|ListA.A064798|ListA.A069013|ListA.A073477|ListA.A073660|ListB.B004748|ListB.B057134|ListB.B060176|ListB.B016910|ListB.B020765|ListB.B046392
T6ERKTJYB82VL2X5	ListC.C018678|ListC.C023638|ListA.A070258|ListB.B001262|ListB.B074545|ListB.B084923
6HCFYT4ZXYBF1KML	ListC.C018775|ListC.C021483|ListC.C021841|ListC.C034209|ListC.C036452|ListC.C063676|ListC.C067102|ListA.A020159|ListA.A081653|ListA.A023222|ListA.A092666|ListA.A040368|ListA.A042123|ListA.A047871|ListA.A053293|ListB.B062151|ListB.B016378|ListB.B070608|ListB.B093808|ListB.B099534|ListB.B033360|ListB.B039024
PIG8SU16B51AZKW1	ListC.C019438|ListC.C035127|ListC.C056731|ListA.A079032|ListA.A079267|ListA.A087621|ListA.A036164|ListB.B058538|ListB.B064343|ListB.B074158
F5POD1STWXZ6J33R	ListC.C020627|ListC.C021030|ListC.C009042|ListC.C026963|ListC.C037906|ListC.C051584|ListC.C060516|ListA.A007348|ListA.A063504|ListA.A014403|ListA.A017537|ListA.A086726|ListA.A087336|ListA.A048641|ListB.B055205|ListB.B006514|ListB.B015810|ListB.B080909|ListB.B082634|ListB.B028729|ListB.B089891
KLK8VB3EXDTQEG7Z	ListC.C022909|ListC.C007153|ListC.C052512|ListC.C052843|ListC.C069541|ListA.A007056|ListA.A064794|ListA.A016525|ListA.A017453|ListA.A082573|ListB.B009028|ListB.B012149|ListB.B013720|ListB.B075815|ListB.B022956
GKGAJ1KBWUO5JGB3	ListC.C024174|ListA.A013493|ListB.B097743
N5JSCKWVJWMTTG2E	ListC.C024795|ListC.C031551|ListC.C066310|ListA.A067738|ListA.A082386|ListA.A083853|ListB.B013627|ListB.B015246|ListB.B073072|ListB.B021011|ListB.B094374|ListB.B096221|ListB.B043300
EWCAH1375YAW6CV6	ListC.C026528|ListC.C056228|ListA.A001246|ListA.A007950|ListB.B066794|ListB.B080567
68DPQSC5HY4TPG0M	ListC.C028044|ListC.C016746|ListC.C047876|ListC.C049444|ListA.A084810|ListA.A088453|ListA.A032791|ListA.A050749|ListB.B067104|ListB.B079005
SVD963JOITY42LRM	ListC.C034411|ListC.C048338|ListC.C075899|ListA.A002094|ListA.A056912|ListA.A004226|ListA.A070365|ListA.A076785|ListA.A043621|ListB.B003889|ListC.C032427|ListA.A059298|ListA.A084322|ListB.B069468|ListB.B095203|ListB.B042846|ListB.B043549
20IKQGZZNHSCPPOQ	ListC.C034474|ListC.C036356|ListC.C043347|ListC.C065423|ListA.A060402|ListA.A077803|ListA.A089561|ListA.A033595|ListA.A035276|ListB.B089517|ListB.B092094|ListB.B095918|ListC.C066470|ListA.A088149|ListB.B010770|ListB.B097095|ListB.B047002
6G6T7QYDRZAYRIJH	ListC.C038113|ListA.A077314|ListB.B052066
1TMXE2DX22LO1Q7N	ListC.C054404|ListA.A008902|ListA.A031259|ListC.C048386|ListA.A000809|ListA.A060748|ListA.A032050|ListB.B001807|ListB.B074800|ListB.B028372|ListB.B034022|ListB.B036258
A2B5O4ZQBHX9HP4O	ListC.C056350|ListA.A056584|ListB.B067339|ListB.B090632
U6QZ70M7C8H1V8R8	ListC.C058110|ListC.C012468|ListC.C037967|ListC.C038712|ListC.C060691|ListC.C060759|ListC.C069177|ListA.A069471|ListA.A018567|ListA.A077209|ListA.A082348|ListB.B057182|ListB.B084072|ListB.B088561|ListB.B089133|ListB.B090194|ListB.B092284|ListB.B030982|ListB.B044179
R53NZ0HFTFOJNGQ0	ListC.C059439|ListA.A014759|ListA.A025999|ListA.A044515|ListB.B000782
YPNGUJ8UF8N3T36L	ListC.C068868|ListA.A013073|ListA.A076580|ListB.B055771|ListB.B011141
WZOTOXE4KDX1NSQB	ListA.A020371|ListA.A028474|ListA.A049581|ListB.B068170|ListB.B029510
GYG91ZGKT8C4OH4D	ListA.A045890
T5HN7A7FDLJKBLO4	ListA.A052212|ListB.B052142|ListA.A006080|ListB.B083528
CDPCQAU88O46C7P8	ListB.B005825
DZ55L3AJ9Y1Z0ERO	ListB.B059915
XF07QRHV2L8OSE7J	ListB.B014315
GDE5S77658CXL2W3	ListB.B020627
B8CPXXW819XLA62R	ListB.B086906


Input Identities Merged
Input Identifier	Output Identifier


Input Identities Updated
Identifier	References before update	References after update
